Tidy data and data wrangling
…
---

## Summary tables 

.question[
Is each of the following a dataset or a summary table?
]

.midi[
.pull-left[

```
## # A tibble: 87 × 3
##    name               height  mass
##    <chr>               <int> <dbl>
##  1 Luke Skywalker        172    77
##  2 C-3PO                 167    75
##  3 R2-D2                  96    32
##  4 Darth Vader           202   136
##  5 Leia Organa           150    49
##  6 Owen Lars             178   120
##  7 Beru Whitesun lars    165    75
##  8 R5-D4                  97    32
##  9 Biggs Darklighter     183    84
## 10 Obi-Wan Kenobi        182    77
## # … with 77 more rows
```
…
## Select a single column

View only the `Age`:

--
.pull-left[

```r
datascience %>%
  select(Age)
```

```
## # A tibble: 2,618 × 1
##      Age
##    <dbl>
##  1    56
##  2    33
##  3    26
##  4    25
##  5    33
##  6    21
##  7    22
##  8    29
##  9    35
## 10    37
## # … with 2,608 more rows
```
…
## Select multiple columns

View only the `Age` type and `Major`:

--

.pull-left[

```r
datascience %>%
  select(Age, Major)
```

```
## # A tibble: 2,618 × 2
##      Age Major                                                       
##    <dbl> <chr>                                                       
##  1    56 Mathematics or statistics                                   
##  2    33 Other                                                       
##  3    26 Computer Science                                            
##  4    25 Physics                                                     
##  5    33 Electrical Engineering                                      
##  6    21 Computer Science                                            
##  7    22 Information technology, networking, or system administration
##  8    29 Computer Science                                            
##  9    35 Physics                                                     
## 10    37 Electrical Engineering                                      
## # … with 2,608 more rows
```
…
---

## Data wrangling, step-by-step

.pull-left[
.vocab[Select:]

```r
datascience %>%
  select(Age, Major)
```

```
## # A tibble: 2,618 × 2
##      Age Major                                                       
##    <dbl> <chr>                                                       
##  1    56 Mathematics or statistics                                   
##  2    33 Other                                                       
##  3    26 Computer Science                                            
##  4    25 Physics                                                     
##  5    33 Electrical Engineering                                      
##  6    21 Computer Science                                            
##  7    22 Information technology, networking, or system administration
##  8    29 Computer Science                                            
##  9    35 Physics                                                     
## 10    37 Electrical Engineering                                      
## # … with 2,608 more rows
```
]

--
.pull-right[
.vocab[Select, then arrange:]

```r
datascience %>%
  select(Age, Major) %>%
  arrange(desc(Age))
```

```
## # A tibble: 2,618 × 2
##      Age Major                                                       
##    <dbl> <chr>                                                       
##  1   100 Engineering (non-computer focused)                          
##  2    99 Information technology, networking, or system administration
##  3    78 Electrical Engineering                                      
##  4    74 A social science                                            
##  5    73 Electrical Engineering                                      
##  6    70 Mathematics or statistics                                   
##  7    70 Engineering (non-computer focused)                          
##  8    70 Engineering (non-computer focused)                          
##  9    69 Physics                                                     
## 10    68 Mathematics or statistics                                   
## # … with 2,608 more rows
```
]

---

## What's happening here?

```r
datascience %>%
  select(Age, Major) %>%
  arrange(Major)
```

```
## # A tibble: 2,618 × 2
##      Age Major           
##    <dbl> <chr>           
##  1    26 A health science
##  2    28 A health science
##  3    28 A health science
##  4    49 A health science
##  5    34 A health science
##  6    30 A health science
##  7    30 A health science
##  8    43 A health science
##  9    39 A health science
## 10    31 A health science
## # … with 2,608 more rows
```
…
.pull-left[
- Start with the data frame `datasccience`, and pass it to the `select()` function,
]
.pull-right[
.small[

```r
*datascience %>%
  select(Age, Major) %>%
  arrange(desc(Age))
```

```
## # A tibble: 2,618 × 2
##      Age Major                                                       
##    <dbl> <chr>                                                       
##  1   100 Engineering (non-computer focused)                          
##  2    99 Information technology, networking, or system administration
##  3    78 Electrical Engineering                                      
##  4    74 A social science                                            
##  5    73 Electrical Engineering                                      
##  6    70 Mathematics or statistics                                   
##  7    70 Engineering (non-computer focused)                          
##  8    70 Engineering (non-computer focused)                          
##  9    69 Physics                                                     
## 10    68 Mathematics or statistics                                   
## # … with 2,608 more rows
```
…
.pull-left[
- Start with the data frame `datascience`, and pass it to the `select()` function,
- then we select the variables `Age` and `Major`,
]
.pull-right[
.small[

```r
datascience %>%
* select(Age, Major) %>%
  arrange(desc(Age))
```

```
## # A tibble: 2,618 × 2
##      Age Major                                                       
##    <dbl> <chr>                                                       
##  1   100 Engineering (non-computer focused)                          
##  2    99 Information technology, networking, or system administration
##  3    78 Electrical Engineering                                      
##  4    74 A social science                                            
##  5    73 Electrical Engineering                                      
##  6    70 Mathematics or statistics                                   
##  7    70 Engineering (non-computer focused)                          
##  8    70 Engineering (non-computer focused)                          
##  9    69 Physics                                                     
## 10    68 Mathematics or statistics                                   
## # … with 2,608 more rows
```
…
```r
datascience %>%
  select(Age, Major) %>% 
* arrange(desc(Age))
```

```
## # A tibble: 2,618 × 2
##      Age Major                                                       
##    <dbl> <chr>                                                       
##  1   100 Engineering (non-computer focused)                          
##  2    99 Information technology, networking, or system administration
##  3    78 Electrical Engineering                                      
##  4    74 A social science                                            
##  5    73 Electrical Engineering                                      
##  6    70 Mathematics or statistics                                   
##  7    70 Engineering (non-computer focused)                          
##  8    70 Engineering (non-computer focused)                          
##  9    69 Physics                                                     
## 10    68 Mathematics or statistics                                   
## # … with 2,608 more rows
```
…
class: middle

### You have a single data frame, and you want to process it and prepare it for anlaysis! 

---

## `select` to keep variables

```r
datascience %>%
* select(Age, Major)
```

```
## # A tibble: 2,618 × 2
##      Age Major                                                       
##    <dbl> <chr>                                                       
##  1    56 Mathematics or statistics                                   
##  2    33 Other                                                       
##  3    26 Computer Science                                            
##  4    25 Physics                                                     
##  5    33 Electrical Engineering                                      
##  6    21 Computer Science                                            
##  7    22 Information technology, networking, or system administration
##  8    29 Computer Science                                            
##  9    35 Physics                                                     
## 10    37 Electrical Engineering                                      
## # … with 2,608 more rows
```

---

## `select` to exclude variables

.small[

```r
datascience %>%
* select(-Age)
```

```
## # A tibble: 2,618 × 16
##     ...1 Country    Gender Emplo…¹ Emplo…² Forma…³ Major Compe…⁴ Compe…⁵ Curre…⁶
##    <dbl> <chr>      <chr>  <chr>   <chr>   <chr>   <chr>   <dbl> <chr>   <chr>  
##  1     1 United St… Male   Indepe… Mix of… Master… Math…  250000 USD     Operat…
##  2     2 Russia     Male   Employ… Intern… Bachel… Other 1200000 RUB     Softwa…
##  3     3 Taiwan     Male   Employ… Financ… Master… Comp… 1100000 TWD     Softwa…
##  4     4 United St… Male   Employ… Academ… Bachel… Phys…   20000 USD     Resear…
##  5     5 United St… Male   Employ… Teleco… Doctor… Elec…  100000 USD     Scient…
##  6     6 Czech Rep… Male   Employ… Academ… Some c… Comp…   20000 CZK     Other  
##  7     7 Russia     Male   Employ… Mix of… Bachel… Info…  624000 RUB     Data A…
##  8     8 Poland     Male   Employ… Pharma… Master… Comp…  126000 PLN     Softwa…
##  9     9 United St… Male   Employ… Techno… Doctor… Phys…  133000 USD     Engine…
## 10    10 Sweden     Male   Employ… Techno… Master… Elec…   80000 USD     Machin…
## # … with 2,608 more rows, 6 more variables: TitleFit <chr>,
## #   LanguageRecommendation <chr>, DataScienceIdentity <chr>,
## #   WorkDataVisualizations <chr>, JobSatisfaction <chr>,
## #   JobSatisfaction2 <dbl>, and abbreviated variable names ¹​EmploymentStatus,
## #   ²​EmployerIndustry, ³​FormalEducation, ⁴​CompensationAmount,
## #   ⁵​CompensationCurrency, ⁶​CurrentJobTitle
```
]

---

## `select` a range of variables

```r
datascience %>%
* select(Gender:EmploymentStatus)
```

```
## # A tibble: 2,618 × 3
##    Gender   Age EmploymentStatus                                    
##    <chr>  <dbl> <chr>                                               
##  1 Male      56 Independent contractor, freelancer, or self-employed
##  2 Male      33 Employed full-time                                  
##  3 Male      26 Employed full-time                                  
##  4 Male      25 Employed part-time                                  
##  5 Male      33 Employed full-time                                  
##  6 Male      21 Employed part-time                                  
##  7 Male      22 Employed full-time                                  
##  8 Male      29 Employed full-time                                  
##  9 Male      35 Employed full-time                                  
## 10 Male      37 Employed full-time                                  
## # … with 2,608 more rows
```

---

## `arrange` in ascending / descending order

.pull-left[

```r
datascience %>%
  select(Age, Gender) %>%
* arrange(Age)
```

```
## # A tibble: 2,618 × 2
##      Age Gender              
##    <dbl> <chr>               
##  1     0 Male                
##  2     1 Male                
##  3    19 Female              
##  4    19 Female              
##  5    19 Male                
##  6    20 Male                
##  7    20 Male                
##  8    20 Female              
##  9    20 A different identity
## 10    20 Male                
## # … with 2,608 more rows
```
]
.pull-right[

```r
datascience %>%
  select(Age, Gender) %>%
* arrange(desc(Age))
```

```
## # A tibble: 2,618 × 2
##      Age Gender              
##    <dbl> <chr>               
##  1   100 A different identity
##  2    99 A different identity
##  3    78 Male                
##  4    74 Male                
##  5    73 Male                
##  6    70 Male                
##  7    70 Male                
##  8    70 Male                
##  9    69 Male                
## 10    68 A different identity
## # … with 2,608 more rows
```
…
---

## `filter` to select a subset of rows

.midi[

```r
# respondents majoring in CS
datascience %>%
* filter(Major  == "Computer Science")
```

```
## # A tibble: 801 × 17
##     ...1 Country      Gender   Age Emplo…¹ Emplo…² Forma…³ Major Compe…⁴ Compe…⁵
##    <dbl> <chr>        <chr>  <dbl> <chr>   <chr>   <chr>   <chr>   <dbl> <chr>  
##  1     3 Taiwan       Male      26 Employ… Financ… Master… Comp… 1100000 TWD    
##  2     6 Czech Repub… Male      21 Employ… Academ… Some c… Comp…   20000 CZK    
##  3     8 Poland       Male      29 Employ… Pharma… Master… Comp…  126000 PLN    
##  4    11 Iran         Male      31 Employ… Techno… Doctor… Comp…   15000 USD    
##  5    19 Brazil       Male      25 Employ… Academ… Master… Comp…    1500 BRL    
##  6    20 Brazil       Male      32 Employ… Academ… Master… Comp…   25000 BRL    
##  7    21 Hungary      Male      38 Employ… Techno… Bachel… Comp…  372000 HUF    
##  8    23 Russia       Male      31 Indepe… CRM/Ma… Some c… Comp…  840000 RUB    
##  9    29 India        Male      23 Employ… Techno… Master… Comp…  360000 INR    
## 10    32 New Zealand  Male      30 Employ… Govern… Bachel… Comp…   90000 NZD    
## # … with 791 more rows, 7 more variables: CurrentJobTitle <chr>,
## #   TitleFit <chr>, LanguageRecommendation <chr>, DataScienceIdentity <chr>,
## #   WorkDataVisualizations <chr>, JobSatisfaction <chr>,
## #   JobSatisfaction2 <dbl>, and abbreviated variable names ¹​EmploymentStatus,
## #   ²​EmployerIndustry, ³​FormalEducation, ⁴​CompensationAmount,
## #   ⁵​CompensationCurrency
```
…
---

## `filter` for many conditions at once

```r
datascience %>%
  filter( 
*   Major == "Computer Science",
*   Age == 30
    ) %>% 
  select(Major, Age)
```

```
## # A tibble: 41 × 2
##    Major              Age
##    <chr>            <dbl>
##  1 Computer Science    30
##  2 Computer Science    30
##  3 Computer Science    30
##  4 Computer Science    30
##  5 Computer Science    30
##  6 Computer Science    30
##  7 Computer Science    30
##  8 Computer Science    30
##  9 Computer Science    30
## 10 Computer Science    30
## # … with 31 more rows
```
---

## `filter` for more complex conditions

```r
datascience %>%
  filter( 
*   Major == "Computer Science" | Major == "Other",   # | means or
*   Age == 30
    ) %>% 
  select(Major, Age)
```

```
## # A tibble: 50 × 2
##    Major              Age
##    <chr>            <dbl>
##  1 Computer Science    30
##  2 Computer Science    30
##  3 Computer Science    30
##  4 Computer Science    30
##  5 Computer Science    30
##  6 Computer Science    30
##  7 Computer Science    30
##  8 Computer Science    30
##  9 Computer Science    30
## 10 Other               30
## # … with 40 more rows
```
…
.pull-right[

```r
datascience %>% 
* distinct(Country, EmployerIndustry) %>%
  arrange(Country, EmployerIndustry)
```

```
## # A tibble: 479 × 2
##    Country   EmployerIndustry
##    <chr>     <chr>           
##  1 Argentina Government      
##  2 Argentina Mix of fields   
##  3 Argentina Other           
##  4 Argentina Retail          
##  5 Argentina Technology      
##  6 Australia Academic        
##  7 Australia CRM/Marketing   
##  8 Australia Financial       
##  9 Australia Government      
## 10 Australia Insurance       
## # … with 469 more rows
```
…
---

## `count` for multiple variables

```r
datascience %>%
* count(EmploymentStatus, EmployerIndustry)
```

```
## # A tibble: 47 × 3
##    EmploymentStatus   EmployerIndustry                     n
##    <chr>              <chr>                            <int>
##  1 Employed full-time Academic                           479
##  2 Employed full-time CRM/Marketing                       66
##  3 Employed full-time Financial                          222
##  4 Employed full-time Government                         141
##  5 Employed full-time Hospitality/Entertainment/Sports    26
##  6 Employed full-time Insurance                           66
##  7 Employed full-time Internet-based                     122
##  8 Employed full-time Manufacturing                       78
##  9 Employed full-time Military/Security                   29
## 10 Employed full-time Mix of fields                      180
## # … with 37 more rows
```

---

## order matters when you `count`

.midi[
.pull-left[

```r
datascience %>%
* count(Country, Age)
```

```
## # A tibble: 879 × 3
##    Country     Age     n
##    <chr>     <dbl> <int>
##  1 Argentina    24     1
##  2 Argentina    25     2
##  3 Argentina    28     1
##  4 Argentina    37     1
##  5 Argentina    38     1
##  6 Argentina    40     1
##  7 Argentina    46     1
##  8 Argentina    48     1
##  9 Argentina    50     1
## 10 Australia     0     1
## # … with 869 more rows
```
]
.pull-right[

```r
datascience %>%
* count(Age, Country)
```

```
## # A tibble: 879 × 3
##      Age Country           n
##    <dbl> <chr>         <int>
##  1     0 Australia         1
##  2     1 United States     1
##  3    19 Canada            1
##  4    19 Other             1
##  5    19 Philippines       1
##  6    20 Hungary           1
##  7    20 Indonesia         1
##  8    20 Nigeria           1
##  9    20 Russia            2
## 10    20 United States     2
## # … with 869 more rows
```
…
## Demo

---

## `mutate` to add a new variable

```r
datascience %>%
* mutate(compensation_1k = CompensationAmount/1000) %>%
  select(compensation_1k, CompensationAmount)
```

```
## # A tibble: 2,618 × 2
##    compensation_1k CompensationAmount
##              <dbl>              <dbl>
##  1             250             250000
##  2            1200            1200000
##  3            1100            1100000
##  4              20              20000
##  5             100             100000
##  6              20              20000
##  7             624             624000
##  8             126             126000
##  9             133             133000
## 10              80              80000
## # … with 2,608 more rows
```
…
