Joining data from multiple sources
…
---

### Check before you move on

```r
datascience %>% 
  select(Country, inUS) 
```

```
## # A tibble: 2,618 × 2
##    Country        inUS 
##    <chr>          <lgl>
##  1 United States  TRUE 
##  2 Russia         FALSE
##  3 Taiwan         FALSE
##  4 United States  TRUE 
##  5 United States  TRUE 
##  6 Czech Republic FALSE
##  7 Russia         FALSE
##  8 Poland         FALSE
##  9 United States  TRUE 
## 10 Sweden         FALSE
## # … with 2,608 more rows
```
…
Filter out countries whose total harvest was less than 100,000 tons since they 
are not included in the visualization:

```r
fisheries <- fisheries %>%
  filter(total >= 100000)
fisheries
```

```
## # A tibble: 82 × 4
##    country    capture aquaculture   total
##    <chr>        <dbl>       <dbl>   <dbl>
##  1 Angola      486490         655  487145
##  2 Argentina   755226        3673  758899
##  3 Australia   174629       96847  271476
##  4 Bangladesh 1674770     2203554 3878324
##  5 Brazil      705000      581230 1286230
##  6 Cambodia    629950      172500  802450
##  7 Cameroon    233190        2315  235505
##  8 Canada      874727      200765 1075492
##  9 Chad        110000          94  110094
## 10 Chile      1829238     1050117 2879355
## # … with 72 more rows
```
…
class: middle, center

# Data joins

---

.pull-left[

```r
fisheries %>% select(country)
```

```
## # A tibble: 82 × 1
##    country   
##    <chr>     
##  1 Angola    
##  2 Argentina 
##  3 Australia 
##  4 Bangladesh
##  5 Brazil    
##  6 Cambodia  
##  7 Cameroon  
##  8 Canada    
##  9 Chad      
## 10 Chile     
## # … with 72 more rows
```
]
.pull-right[

```r
continents
```

```
## # A tibble: 245 × 2
##    country           continent
##    <chr>             <chr>    
##  1 Afghanistan       Asia     
##  2 Åland Islands     Europe   
##  3 Albania           Europe   
##  4 Algeria           Africa   
##  5 American Samoa    Oceania  
##  6 Andorra           Europe   
##  7 Angola            Africa   
##  8 Anguilla          Americas 
##  9 Antigua & Barbuda Americas 
## 10 Argentina         Americas 
## # … with 235 more rows
```
…
---

.discussion[
We want to keep all rows and columns from `fisheries` and add a column for 
corresponding continents. Which join function should we use?
]

.pull-left[

```r
fisheries %>% select(country)
```

```
## # A tibble: 82 × 1
##    country   
##    <chr>     
##  1 Angola    
##  2 Argentina 
##  3 Australia 
##  4 Bangladesh
##  5 Brazil    
##  6 Cambodia  
##  7 Cameroon  
##  8 Canada    
##  9 Chad      
## 10 Chile     
## # … with 72 more rows
```
]
.pull-right[

```r
continents
```

```
## # A tibble: 245 × 2
##    country           continent
##    <chr>             <chr>    
##  1 Afghanistan       Asia     
##  2 Åland Islands     Europe   
##  3 Albania           Europe   
##  4 Algeria           Africa   
##  5 American Samoa    Oceania  
##  6 Andorra           Europe   
##  7 Angola            Africa   
##  8 Anguilla          Americas 
##  9 Antigua & Barbuda Americas 
## 10 Argentina         Americas 
## # … with 235 more rows
```
]

---

## Join fisheries and continents 

```r
fisheries <- left_join(fisheries, continents,
*                      by = "country")
fisheries
```

```
## # A tibble: 82 × 5
##    country    capture aquaculture   total continent
##    <chr>        <dbl>       <dbl>   <dbl> <chr>    
##  1 Angola      486490         655  487145 Africa   
##  2 Argentina   755226        3673  758899 Americas 
##  3 Australia   174629       96847  271476 Oceania  
##  4 Bangladesh 1674770     2203554 3878324 Asia     
##  5 Brazil      705000      581230 1286230 Americas 
##  6 Cambodia    629950      172500  802450 Asia     
##  7 Cameroon    233190        2315  235505 Africa   
##  8 Canada      874727      200765 1075492 Americas 
##  9 Chad        110000          94  110094 Africa   
## 10 Chile      1829238     1050117 2879355 Americas 
## # … with 72 more rows
```
…
