Data science ethics
…
---

## Distribution of acceptance by department

```r
admissions %>%
  count(department, gender, decision) %>%
  group_by(department, gender) %>%
  mutate(prop_admit = n / sum(n)) 
```

```
## # A tibble: 24 × 5
## # Groups:   department, gender [12]
##    department gender decision     n prop_admit
##    <fct>      <chr>  <fct>    <int>      <dbl>
##  1 A          female deny        19      0.176
##  2 A          female admit       89      0.824
##  3 A          male   deny       314      0.381
##  4 A          male   admit      511      0.619
##  5 B          female deny         8      0.32 
##  6 B          female admit       17      0.68 
##  7 B          male   deny       207      0.370
##  8 B          male   admit      353      0.630
##  9 C          female deny       391      0.659
## 10 C          female admit      202      0.341
## # … with 14 more rows
```
…
